<?xml version="1.0" encoding="iso-8859-1"?>
<!-- Generator: Adobe Illustrator 21.1.0, SVG Export Plug-In . SVG Version: 6.00 Build 0)  -->
<svg version="1.1" id="Layer_1" xmlns="http://www.w3.org/2000/svg" xmlns:xlink="http://www.w3.org/1999/xlink" x="0px" y="0px"
	 viewBox="0 0 432 360" style="enable-background:new 0 0 432 360;" xml:space="preserve">
<g>
	<path d="M45.9,64.6h338.8c12.3,0,22.2-10.1,22.2-22.6c0-12.5-9.9-22.7-22.2-22.7H45.9c-12.3,0-22.2,10.2-22.2,22.7
		C23.7,54.5,33.6,64.6,45.9,64.6L45.9,64.6z M384.7,158H45.9c-12.3,0-22.2,10.1-22.2,22.6c0,12.6,10,22.7,22.2,22.7h338.8
		c12.3,0,22.2-10.1,22.2-22.7C406.9,168.2,396.9,158,384.7,158L384.7,158z M384.7,296.7H45.9c-12.3,0-22.2,10.2-22.2,22.7
		c0,12.5,10,22.7,22.2,22.7h338.8c12.3,0,22.2-10.1,22.2-22.7C406.9,306.9,396.9,296.7,384.7,296.7L384.7,296.7z M384.7,296.7"/>
</g>
</svg>
